action: py38, msg: installpkg
cwd: /home/iman/Bureau/tp3-genie/fizzbuzz
cmd: /home/iman/Bureau/tp3-genie/fizzbuzz/.tox/py38/bin/python -m pip install --no-deps -U .tox/.tmp/package/1/fizzbuzz-1.0.0.zip
Processing ./.tox/.tmp/package/1/fizzbuzz-1.0.0.zip
Building wheels for collected packages: fizzbuzz
  Building wheel for fizzbuzz (setup.py): started
  Building wheel for fizzbuzz (setup.py): finished with status 'done'
  Created wheel for fizzbuzz: filename=fizzbuzz-1.0.0-py3-none-any.whl size=1064 sha256=ab432d6fb0774a7346a0ef76886092683a75d25acb98dc451b8c8603657913e7
  Stored in directory: /home/iman/.cache/pip/wheels/f7/81/ef/7462725cb0425eff7278620a7378bcb9b097b5838052a406e4
Successfully built fizzbuzz
Installing collected packages: fizzbuzz
  Attempting uninstall: fizzbuzz
    Found existing installation: fizzbuzz 1.0.0
    Not uninstalling fizzbuzz at /home/iman/Bureau/tp3-genie/fizzbuzz, outside environment /home/iman/Bureau/tp3-genie/fizzbuzz/.tox/py38
    Can't uninstall 'fizzbuzz'. No files were found to uninstall.
Successfully installed fizzbuzz-1.0.0
